{
	"class" : {
		"exampleAnim" : "",
		"formsFromFileNamed:" : "EG 11/26/2021 16:34",
		"formsFromStream:" : "EG 11/26/2021 16:33",
		"grabScreenAndSaveOnDisk" : "",
		"initialize" : "",
		"typicalFileExtensions" : "",
		"wantsToHandleGIFs" : "" },
	"instance" : {
		"backgroundColor" : "",
		"canvasHeight" : "",
		"canvasHeight:" : "",
		"canvasWidth" : "",
		"canvasWidth:" : "",
		"close" : "EG 11/26/2021 16:12",
		"delays" : "EG 11/26/2021 16:30",
		"form" : "",
		"forms" : "",
		"frames" : "",
		"frames:" : "",
		"isAnimated" : "",
		"loopCount:" : "",
		"nextImage" : "",
		"nextPutFrame:" : "",
		"nextPutImage:" : "",
		"processColorsFor:" : "EG 11/27/2021 07:51",
		"readApplicationExtension" : "",
		"readBitDataOnFrame:" : "EG 11/27/2021 07:51",
		"readBody" : "EG 11/26/2021 16:37",
		"readColorTable:" : "",
		"readCommentExtension" : "",
		"readDisposal:" : "",
		"readExtensionBlock:withFrame:" : "",
		"readHeader" : "",
		"readWord" : "",
		"setStream:" : "",
		"understandsImageFormat" : "",
		"updatePixelPosition" : "",
		"writeBitData:" : "",
		"writeDisposal:toPackedByte:" : "",
		"writeFrameHeader:" : "",
		"writeGCEForFrame:" : "",
		"writeHeader" : "",
		"writeNetscapeExtension" : "",
		"writeWord:" : "" } }
