{
	"category" : "Graphics-Files",
	"classinstvars" : [
		 ],
	"classvars" : [
		"Extension",
		"ImageSeparator",
		"Terminator" ],
	"commentStamp" : "",
	"instvars" : [
		"width",
		"height",
		"bitsPerPixel",
		"colorPalette",
		"rowByteSize",
		"xpos",
		"ypos",
		"pass",
		"interlace",
		"transparentIndex",
		"localColorTable",
		"loopCount",
		"offset",
		"frames",
		"canvasWidth",
		"canvasHeight",
		"backgroundColorIndex",
		"comment" ],
	"name" : "GIFReadWriter",
	"pools" : [
		 ],
	"super" : "ImageReadWriter",
	"type" : "normal" }
