{
	"class" : {
		 },
	"instance" : {
		"checkCodeSize" : "",
		"codeStream:" : "",
		"decode" : "",
		"handleCode:withPreviousCode:on:" : "EG 11/26/2021 16:10",
		"initializeTables" : "",
		"maxCode:" : "",
		"minimumCodeSize:" : "",
		"nextByte" : "",
		"nextCode" : "",
		"onDecodedBit:" : "",
		"peekByte" : "",
		"writeBit:on:" : "" } }
