{
	"class" : {
		"fileReaderServicesForFile:suffix:" : "nk 6/12/2004 13:11",
		"fromGIFFileNamed:" : "EG 11/26/2021 16:33",
		"fromStream:" : "EG 11/26/2021 18:13",
		"initialize" : "tpr 1/7/2019 15:36",
		"openGIFInWindow:" : "nk 2/15/2004 16:57",
		"serviceOpenGIFInWindow" : "dgd 4/3/2006 13:36",
		"services" : "dgd 4/3/2006 13:36",
		"unload" : "tpr 1/7/2019 15:36" },
	"instance" : {
		"addCustomMenuItems:hand:" : "EG 12/4/2021 10:44",
		"composedFormsFromReader:" : "EG 11/27/2021 09:37",
		"fromGIFFileNamed:" : "EG 11/26/2021 16:30",
		"fromGIFReader:" : "EG 12/4/2021 10:50",
		"fromImages:" : "kfr 2/24/2019 14:35",
		"fromImages:delay:" : "kfr 2/24/2019 14:34",
		"fromReader:" : "EG 11/26/2021 18:46",
		"fromStream:" : "EG 11/26/2021 18:12",
		"fromUrl:" : "EG 11/26/2021 19:59",
		"images" : "mir 11/19/2003 13:42",
		"images:" : "EG 11/27/2021 08:05",
		"initialize" : "bf 2/25/2005 11:09",
		"maxImagesDepth" : "EG 11/26/2021 19:05",
		"maxImagesExtent" : "EG 11/26/2021 19:10",
		"reset" : "EG 11/26/2021 19:16",
		"setStepping:" : "EG 12/4/2021 11:03",
		"setUniformDelay:" : "kfr 2/24/2019 14:29",
		"step" : "EG 11/26/2021 19:10",
		"stepTime" : "mir 11/19/2003 13:40",
		"stepTime:" : "mir 11/19/2003 13:40",
		"steppingString" : "EG 12/4/2021 11:03",
		"toggleStepping" : "EG 12/4/2021 11:03",
		"wantsSteps" : "asm 12/15/2003 19:44" } }
